<svg width="33" height="30" viewBox="0 0 33 30" fill="none" xmlns="http://www.w3.org/2000/svg">
<rect width="32.132" height="30" rx="4" fill="#00A651"/>
<path d="M18.5306 17.6289V19H14.2356V17.6289H18.5306ZM14.804 10.4688V19H13.0462V10.4688H14.804Z" fill="white"/>
</svg>

