<svg width="782" height="287" viewBox="0 0 782 287" fill="none" xmlns="http://www.w3.org/2000/svg">
<path d="M170.439 233.709C159.76 233.709 150.627 231.601 143.039 227.386C135.452 223.171 129.597 217.269 125.476 209.682C121.448 202.001 119.434 192.961 119.434 182.563C119.434 174.788 120.558 167.81 122.806 161.627C125.148 155.351 128.52 150.012 132.923 145.609C137.325 141.113 142.665 137.647 148.941 135.211C155.311 132.776 162.477 131.558 170.439 131.558C175.123 131.558 179.853 132.167 184.63 133.385C189.501 134.509 193.717 136.148 197.276 138.303C199.618 139.614 201.211 141.253 202.054 143.22C202.897 145.188 203.131 147.155 202.756 149.122C202.475 151.089 201.679 152.775 200.368 154.18C199.15 155.585 197.604 156.475 195.731 156.85C193.857 157.225 191.75 156.803 189.408 155.585C186.598 153.899 183.647 152.681 180.556 151.932C177.464 151.183 174.326 150.808 171.141 150.808C164.865 150.808 159.573 152.073 155.264 154.602C151.049 157.037 147.864 160.597 145.709 165.281C143.555 169.964 142.477 175.725 142.477 182.563C142.477 189.308 143.555 195.069 145.709 199.846C147.864 204.623 151.049 208.277 155.264 210.806C159.573 213.241 164.865 214.459 171.141 214.459C174.139 214.459 177.183 214.084 180.275 213.335C183.46 212.586 186.504 211.415 189.408 209.822C191.843 208.605 193.998 208.183 195.871 208.558C197.838 208.839 199.431 209.682 200.649 211.087C201.96 212.398 202.756 213.991 203.037 215.864C203.412 217.738 203.225 219.611 202.475 221.485C201.726 223.358 200.321 224.951 198.26 226.262C194.794 228.604 190.532 230.43 185.474 231.742C180.415 233.053 175.404 233.709 170.439 233.709ZM242.02 257.455C238.179 257.455 234.807 256.706 231.903 255.207C229.093 253.802 226.939 251.694 225.44 248.884C224.035 246.074 223.332 242.702 223.332 238.767V214.319C223.332 210.572 222.677 207.855 221.365 206.169C220.147 204.483 217.899 203.593 214.621 203.499C212.466 203.312 210.78 202.469 209.562 200.97C208.438 199.378 207.876 197.457 207.876 195.209C207.876 193.055 208.438 191.228 209.562 189.729C210.78 188.137 212.466 187.294 214.621 187.2C217.899 187.013 220.147 186.076 221.365 184.39C222.677 182.704 223.332 179.987 223.332 176.24V151.792C223.332 145.89 224.972 141.3 228.25 138.022C231.529 134.743 236.119 133.104 242.02 133.104H252.137C254.666 133.104 256.727 133.853 258.319 135.352C260.005 136.851 260.848 138.724 260.848 140.972C260.848 143.22 260.193 145.094 258.881 146.593C257.57 148.091 255.79 148.841 253.542 148.841H249.889C248.109 148.841 246.751 149.356 245.814 150.386C244.971 151.417 244.549 152.962 244.549 155.023V178.91C244.549 181.814 243.894 184.53 242.582 187.06C241.364 189.589 239.678 191.65 237.524 193.242C235.463 194.835 233.168 195.631 230.639 195.631V195.069C233.168 195.069 235.463 195.865 237.524 197.457C239.678 198.956 241.364 200.97 242.582 203.499C243.894 206.029 244.549 208.792 244.549 211.789V235.536C244.549 237.596 244.971 239.142 245.814 240.173C246.751 241.203 248.156 241.718 250.029 241.718H253.542C255.79 241.718 257.57 242.468 258.881 243.966C260.193 245.465 260.848 247.339 260.848 249.587C260.848 251.835 260.005 253.708 258.319 255.207C256.727 256.706 254.666 257.455 252.137 257.455H242.02ZM282.636 233.428C279.077 233.428 276.36 232.444 274.487 230.477C272.613 228.51 271.677 225.747 271.677 222.187V143.08C271.677 139.52 272.613 136.757 274.487 134.79C276.36 132.823 279.077 131.839 282.636 131.839C286.102 131.839 288.772 132.823 290.645 134.79C292.519 136.757 293.456 139.52 293.456 143.08V222.187C293.456 225.747 292.519 228.51 290.645 230.477C288.866 232.444 286.196 233.428 282.636 233.428ZM323.507 233.428C320.229 233.428 317.699 232.538 315.92 230.758C314.234 228.885 313.391 226.262 313.391 222.89V142.799C313.391 139.239 314.234 136.523 315.92 134.649C317.699 132.776 320.041 131.839 322.945 131.839C325.474 131.839 327.395 132.354 328.706 133.385C330.111 134.321 331.704 135.914 333.483 138.162L382.803 200.97H379.009V142.237C379.009 138.958 379.852 136.429 381.538 134.649C383.318 132.776 385.847 131.839 389.126 131.839C392.404 131.839 394.886 132.776 396.573 134.649C398.352 136.429 399.242 138.958 399.242 142.237V223.311C399.242 226.403 398.446 228.885 396.854 230.758C395.261 232.538 393.107 233.428 390.39 233.428C387.767 233.428 385.66 232.913 384.067 231.882C382.568 230.852 380.929 229.213 379.149 226.965L329.971 164.156H333.624V222.89C333.624 226.262 332.781 228.885 331.095 230.758C329.409 232.538 326.879 233.428 323.507 233.428ZM418.763 257.455C416.328 257.455 414.267 256.706 412.581 255.207C410.895 253.708 410.052 251.835 410.052 249.587C410.052 247.339 410.707 245.465 412.019 243.966C413.33 242.468 415.11 241.718 417.358 241.718H420.871C422.744 241.718 424.103 241.203 424.946 240.173C425.882 239.142 426.351 237.596 426.351 235.536V211.789C426.351 208.792 426.96 206.029 428.177 203.499C429.489 200.97 431.222 198.956 433.376 197.457C435.531 195.865 437.826 195.069 440.261 195.069V195.631C437.826 195.631 435.531 194.835 433.376 193.242C431.222 191.65 429.489 189.589 428.177 187.06C426.96 184.53 426.351 181.814 426.351 178.91V155.023C426.351 152.962 425.882 151.417 424.946 150.386C424.103 149.356 422.791 148.841 421.011 148.841H417.358C415.11 148.841 413.33 148.091 412.019 146.593C410.707 145.094 410.052 143.22 410.052 140.972C410.052 138.724 410.895 136.851 412.581 135.352C414.267 133.853 416.328 133.104 418.763 133.104H428.88C432.814 133.104 436.187 133.853 438.997 135.352C441.807 136.757 443.915 138.865 445.32 141.675C446.818 144.391 447.568 147.764 447.568 151.792V176.24C447.568 179.987 448.224 182.704 449.535 184.39C450.846 186.076 453.095 187.013 456.279 187.2C458.434 187.294 460.073 188.137 461.197 189.729C462.415 191.228 463.024 193.102 463.024 195.35C463.024 197.504 462.415 199.378 461.197 200.97C460.073 202.469 458.434 203.312 456.279 203.499C453.095 203.593 450.846 204.483 449.535 206.169C448.224 207.855 447.568 210.572 447.568 214.319V238.767C447.568 244.669 445.929 249.259 442.65 252.537C439.371 255.816 434.781 257.455 428.88 257.455H418.763ZM488.746 232.163C485.093 232.163 482.283 231.18 480.316 229.213C478.348 227.246 477.365 224.435 477.365 220.782V144.485C477.365 140.832 478.348 138.022 480.316 136.054C482.283 134.087 485.093 133.104 488.746 133.104H537.784C540.594 133.104 542.702 133.853 544.107 135.352C545.606 136.757 546.355 138.818 546.355 141.534C546.355 144.345 545.606 146.499 544.107 147.998C542.702 149.403 540.594 150.105 537.784 150.105H498.16V173.29H534.552C537.456 173.29 539.611 174.039 541.016 175.538C542.515 176.943 543.264 179.051 543.264 181.861C543.264 184.671 542.515 186.825 541.016 188.324C539.611 189.729 537.456 190.432 534.552 190.432H498.16V215.162H537.784C540.594 215.162 542.702 215.911 544.107 217.41C545.606 218.815 546.355 220.876 546.355 223.592C546.355 226.403 545.606 228.557 544.107 230.056C542.702 231.461 540.594 232.163 537.784 232.163H488.746ZM572.556 233.428C569.371 233.428 566.936 232.538 565.25 230.758C563.563 228.979 562.72 226.496 562.72 223.311V141.956C562.72 138.771 563.61 136.289 565.39 134.509C567.264 132.729 569.793 131.839 572.978 131.839C575.788 131.839 577.989 132.401 579.582 133.525C581.268 134.556 582.813 136.382 584.218 139.005L616.676 198.3H611.899L644.357 139.005C645.762 136.382 647.261 134.556 648.853 133.525C650.539 132.401 652.741 131.839 655.457 131.839C658.642 131.839 661.078 132.729 662.764 134.509C664.543 136.289 665.433 138.771 665.433 141.956V223.311C665.433 226.496 664.59 228.979 662.904 230.758C661.218 232.538 658.783 233.428 655.598 233.428C652.413 233.428 649.93 232.538 648.151 230.758C646.464 228.979 645.621 226.496 645.621 223.311V166.405H648.713L622.578 213.195C621.454 214.974 620.236 216.333 618.924 217.269C617.707 218.112 616.067 218.534 614.007 218.534C611.946 218.534 610.26 218.066 608.948 217.129C607.637 216.192 606.466 214.881 605.435 213.195L579.02 166.264H582.392V223.311C582.392 226.496 581.549 228.979 579.863 230.758C578.27 232.538 575.835 233.428 572.556 233.428ZM688.333 233.428C685.71 233.428 683.556 232.819 681.87 231.601C680.277 230.384 679.247 228.744 678.778 226.684C678.404 224.623 678.825 222.328 680.043 219.799L716.014 140.972C717.512 137.787 719.292 135.492 721.353 134.087C723.414 132.589 725.803 131.839 728.519 131.839C731.236 131.839 733.624 132.589 735.685 134.087C737.746 135.492 739.479 137.787 740.884 140.972L777.136 219.799C778.353 222.328 778.775 224.67 778.4 226.824C778.119 228.885 777.182 230.524 775.59 231.742C773.998 232.866 771.937 233.428 769.408 233.428C766.223 233.428 763.74 232.679 761.961 231.18C760.274 229.681 758.776 227.339 757.464 224.154L749.034 204.623L757.745 210.665H699.152L707.864 204.623L699.574 224.154C698.169 227.433 696.67 229.822 695.078 231.32C693.579 232.725 691.331 233.428 688.333 233.428ZM728.238 156.288L710.253 199.144L706.459 193.664H750.439L746.645 199.144L728.519 156.288H728.238Z" fill="#00264D"/>
<g filter="url(#filter0_d_27_6264)">
<path d="M215.952 24.0836L203.3 12.4185C195.933 19.2117 183.877 19.2117 176.509 12.4185L13.3807 162.83L13.8123 163.228C20.7483 170.062 20.6143 180.863 13.3956 187.519L26.047 199.184C33.1169 196.041 41.8687 197.139 47.7181 202.533C53.5675 207.926 54.7433 216.009 51.3498 222.514L64.7603 234.879C71.8302 231.737 80.5819 232.835 86.4314 238.228C92.2659 243.608 93.4566 251.705 90.063 258.21L102.7 269.861C109.948 263.178 121.602 263.054 129.029 269.491L129.461 269.888L292.59 119.477L292.575 119.463C285.177 112.643 285.192 101.595 292.59 94.7743L279.938 83.1092C272.868 86.2519 264.116 85.154 258.267 79.7606C252.433 74.3809 251.242 66.284 254.635 59.779L241.24 47.4276C234.17 50.5703 225.418 49.4725 219.569 44.0791C213.719 38.6856 212.543 30.6024 215.952 24.0836Z" fill="#004A9B"/>
<path d="M77.8576 130.031L167.162 212.373M139.73 71.9383L229.034 154.28M263.074 122.894L133.196 242.647C130.845 244.815 127.005 244.815 124.653 242.647L43.8924 168.182C41.5407 166.014 41.5407 162.473 43.8924 160.305L173.755 40.5659C176.107 38.3976 179.947 38.3976 182.299 40.5659L263.044 115.017C263.607 115.532 264.055 116.145 264.361 116.82C264.667 117.495 264.826 118.218 264.829 118.95C264.831 119.681 264.678 120.406 264.377 121.083C264.076 121.76 263.633 122.375 263.074 122.894Z" stroke="#6D98FB" stroke-width="10.7318" stroke-miterlimit="10"/>
</g>
<path d="M164.194 224.342C153.515 224.342 144.382 222.234 136.794 218.019C129.207 213.803 123.352 207.902 119.231 200.314C115.203 192.633 113.189 183.594 113.189 173.196C113.189 165.421 114.313 158.442 116.561 152.26C118.903 145.984 122.275 140.644 126.678 136.242C131.08 131.745 136.42 128.28 142.696 125.844C149.066 123.408 156.232 122.191 164.194 122.191C168.878 122.191 173.608 122.8 178.386 124.017C183.257 125.141 187.472 126.781 191.031 128.935C193.373 130.247 194.966 131.886 195.809 133.853C196.652 135.82 196.886 137.787 196.511 139.755C196.23 141.722 195.434 143.408 194.123 144.813C192.905 146.218 191.359 147.108 189.486 147.483C187.612 147.857 185.505 147.436 183.163 146.218C180.353 144.532 177.402 143.314 174.311 142.565C171.219 141.815 168.081 141.441 164.897 141.441C158.62 141.441 153.328 142.705 149.019 145.234C144.804 147.67 141.619 151.23 139.464 155.913C137.31 160.597 136.232 166.358 136.232 173.196C136.232 179.94 137.31 185.701 139.464 190.479C141.619 195.256 144.804 198.909 149.019 201.438C153.328 203.874 158.62 205.092 164.897 205.092C167.894 205.092 170.938 204.717 174.03 203.968C177.215 203.218 180.259 202.047 183.163 200.455C185.598 199.237 187.753 198.816 189.626 199.19C191.593 199.471 193.186 200.314 194.404 201.72C195.715 203.031 196.511 204.623 196.792 206.497C197.167 208.37 196.98 210.244 196.23 212.117C195.481 213.991 194.076 215.583 192.015 216.895C188.549 219.236 184.287 221.063 179.229 222.375C174.17 223.686 169.159 224.342 164.194 224.342ZM235.775 248.088C231.935 248.088 228.562 247.339 225.658 245.84C222.848 244.435 220.694 242.327 219.195 239.517C217.79 236.707 217.087 233.334 217.087 229.4V204.951C217.087 201.204 216.432 198.488 215.12 196.802C213.902 195.116 211.654 194.226 208.376 194.132C206.221 193.945 204.535 193.102 203.317 191.603C202.193 190.01 201.631 188.09 201.631 185.842C201.631 183.687 202.193 181.861 203.317 180.362C204.535 178.77 206.221 177.926 208.376 177.833C211.654 177.645 213.902 176.709 215.12 175.023C216.432 173.336 217.087 170.62 217.087 166.873V142.424C217.087 136.523 218.727 131.933 222.005 128.654C225.284 125.376 229.874 123.736 235.775 123.736H245.892C248.421 123.736 250.482 124.486 252.074 125.985C253.76 127.483 254.604 129.357 254.604 131.605C254.604 133.853 253.948 135.727 252.636 137.225C251.325 138.724 249.545 139.473 247.297 139.473H243.644C241.864 139.473 240.506 139.989 239.569 141.019C238.726 142.05 238.304 143.595 238.304 145.656V169.543C238.304 172.447 237.649 175.163 236.337 177.692C235.119 180.221 233.433 182.282 231.279 183.875C229.218 185.467 226.923 186.263 224.394 186.263V185.701C226.923 185.701 229.218 186.498 231.279 188.09C233.433 189.589 235.119 191.603 236.337 194.132C237.649 196.661 238.304 199.425 238.304 202.422V226.168C238.304 228.229 238.726 229.775 239.569 230.805C240.506 231.836 241.911 232.351 243.784 232.351H247.297C249.545 232.351 251.325 233.1 252.636 234.599C253.948 236.098 254.604 237.971 254.604 240.219C254.604 242.467 253.76 244.341 252.074 245.84C250.482 247.339 248.421 248.088 245.892 248.088H235.775ZM276.391 224.061C272.832 224.061 270.115 223.077 268.242 221.11C266.368 219.143 265.432 216.379 265.432 212.82V133.713C265.432 130.153 266.368 127.39 268.242 125.422C270.115 123.455 272.832 122.472 276.391 122.472C279.857 122.472 282.527 123.455 284.4 125.422C286.274 127.39 287.211 130.153 287.211 133.713V212.82C287.211 216.379 286.274 219.143 284.4 221.11C282.621 223.077 279.951 224.061 276.391 224.061ZM317.262 224.061C313.984 224.061 311.455 223.171 309.675 221.391C307.989 219.517 307.146 216.895 307.146 213.522V133.432C307.146 129.872 307.989 127.155 309.675 125.282C311.455 123.408 313.796 122.472 316.7 122.472C319.229 122.472 321.15 122.987 322.461 124.017C323.866 124.954 325.459 126.547 327.239 128.795L376.558 191.603H372.764V132.87C372.764 129.591 373.607 127.062 375.293 125.282C377.073 123.408 379.602 122.472 382.881 122.472C386.159 122.472 388.641 123.408 390.328 125.282C392.107 127.062 392.997 129.591 392.997 132.87V213.944C392.997 217.035 392.201 219.517 390.609 221.391C389.016 223.171 386.862 224.061 384.145 224.061C381.522 224.061 379.415 223.545 377.822 222.515C376.323 221.485 374.684 219.845 372.904 217.597L323.726 154.789H327.379V213.522C327.379 216.895 326.536 219.517 324.85 221.391C323.164 223.171 320.635 224.061 317.262 224.061ZM412.518 248.088C410.083 248.088 408.022 247.339 406.336 245.84C404.65 244.341 403.807 242.467 403.807 240.219C403.807 237.971 404.462 236.098 405.774 234.599C407.085 233.1 408.865 232.351 411.113 232.351H414.626C416.499 232.351 417.858 231.836 418.701 230.805C419.638 229.775 420.106 228.229 420.106 226.168V202.422C420.106 199.425 420.715 196.661 421.933 194.132C423.244 191.603 424.977 189.589 427.131 188.09C429.286 186.498 431.581 185.701 434.016 185.701V186.263C431.581 186.263 429.286 185.467 427.131 183.875C424.977 182.282 423.244 180.221 421.933 177.692C420.715 175.163 420.106 172.447 420.106 169.543V145.656C420.106 143.595 419.638 142.05 418.701 141.019C417.858 139.989 416.546 139.473 414.766 139.473H411.113C408.865 139.473 407.085 138.724 405.774 137.225C404.462 135.727 403.807 133.853 403.807 131.605C403.807 129.357 404.65 127.483 406.336 125.985C408.022 124.486 410.083 123.736 412.518 123.736H422.635C426.569 123.736 429.942 124.486 432.752 125.985C435.562 127.39 437.67 129.497 439.075 132.307C440.574 135.024 441.323 138.396 441.323 142.424V166.873C441.323 170.62 441.979 173.336 443.29 175.023C444.601 176.709 446.85 177.645 450.035 177.833C452.189 177.926 453.828 178.77 454.952 180.362C456.17 181.861 456.779 183.734 456.779 185.982C456.779 188.137 456.17 190.01 454.952 191.603C453.828 193.102 452.189 193.945 450.035 194.132C446.85 194.226 444.601 195.116 443.29 196.802C441.979 198.488 441.323 201.204 441.323 204.951V229.4C441.323 235.301 439.684 239.891 436.405 243.17C433.126 246.449 428.536 248.088 422.635 248.088H412.518ZM482.501 222.796C478.848 222.796 476.038 221.812 474.071 219.845C472.103 217.878 471.12 215.068 471.12 211.415V135.118C471.12 131.464 472.103 128.654 474.071 126.687C476.038 124.72 478.848 123.736 482.501 123.736H531.539C534.349 123.736 536.457 124.486 537.862 125.985C539.361 127.39 540.11 129.45 540.11 132.167C540.11 134.977 539.361 137.132 537.862 138.63C536.457 140.036 534.349 140.738 531.539 140.738H491.915V163.922H528.308C531.211 163.922 533.366 164.672 534.771 166.17C536.27 167.576 537.019 169.683 537.019 172.493C537.019 175.304 536.27 177.458 534.771 178.957C533.366 180.362 531.211 181.065 528.308 181.065H491.915V205.794H531.539C534.349 205.794 536.457 206.544 537.862 208.042C539.361 209.448 540.11 211.508 540.11 214.225C540.11 217.035 539.361 219.19 537.862 220.688C536.457 222.093 534.349 222.796 531.539 222.796H482.501ZM566.311 224.061C563.126 224.061 560.691 223.171 559.005 221.391C557.319 219.611 556.475 217.129 556.475 213.944V132.588C556.475 129.404 557.365 126.921 559.145 125.141C561.019 123.362 563.548 122.472 566.733 122.472C569.543 122.472 571.744 123.034 573.337 124.158C575.023 125.188 576.568 127.015 577.974 129.638L610.431 188.933H605.654L638.112 129.638C639.517 127.015 641.016 125.188 642.608 124.158C644.294 123.034 646.496 122.472 649.212 122.472C652.397 122.472 654.833 123.362 656.519 125.141C658.299 126.921 659.188 129.404 659.188 132.588V213.944C659.188 217.129 658.345 219.611 656.659 221.391C654.973 223.171 652.538 224.061 649.353 224.061C646.168 224.061 643.685 223.171 641.906 221.391C640.22 219.611 639.376 217.129 639.376 213.944V157.037H642.468L616.333 203.827C615.209 205.607 613.991 206.965 612.68 207.902C611.462 208.745 609.822 209.167 607.762 209.167C605.701 209.167 604.015 208.698 602.703 207.761C601.392 206.825 600.221 205.513 599.191 203.827L572.775 156.897H576.147V213.944C576.147 217.129 575.304 219.611 573.618 221.391C572.025 223.171 569.59 224.061 566.311 224.061ZM682.088 224.061C679.465 224.061 677.311 223.452 675.625 222.234C674.032 221.016 673.002 219.377 672.534 217.316C672.159 215.255 672.58 212.96 673.798 210.431L709.769 131.605C711.268 128.42 713.047 126.125 715.108 124.72C717.169 123.221 719.558 122.472 722.274 122.472C724.991 122.472 727.379 123.221 729.44 124.72C731.501 126.125 733.234 128.42 734.639 131.605L770.891 210.431C772.108 212.96 772.53 215.302 772.155 217.457C771.874 219.517 770.938 221.157 769.345 222.375C767.753 223.499 765.692 224.061 763.163 224.061C759.978 224.061 757.495 223.311 755.716 221.812C754.029 220.314 752.531 217.972 751.219 214.787L742.789 195.256L751.5 201.298H692.908L701.619 195.256L693.329 214.787C691.924 218.066 690.425 220.454 688.833 221.953C687.334 223.358 685.086 224.061 682.088 224.061ZM721.993 146.921L704.008 189.776L700.214 184.296H744.194L740.4 189.776L722.274 146.921H721.993Z" fill="#D2DBFF"/>
<defs>
<filter id="filter0_d_27_6264" x="13.3807" y="12.4185" width="295.627" height="273.888" filterUnits="userSpaceOnUse" color-interpolation-filters="sRGB">
<feFlood flood-opacity="0" result="BackgroundImageFix"/>
<feColorMatrix in="SourceAlpha" type="matrix" values="0 0 0 0 0 0 0 0 0 0 0 0 0 0 0 0 0 0 127 0" result="hardAlpha"/>
<feOffset dx="16.4182" dy="16.4182"/>
<feComposite in2="hardAlpha" operator="out"/>
<feColorMatrix type="matrix" values="0 0 0 0 0 0 0 0 0 0.14902 0 0 0 0 0.301961 0 0 0 1 0"/>
<feBlend mode="normal" in2="BackgroundImageFix" result="effect1_dropShadow_27_6264"/>
<feBlend mode="normal" in="SourceGraphic" in2="effect1_dropShadow_27_6264" result="shape"/>
</filter>
</defs>
</svg>
