{
    "swagger": "2.0",
    "info": {
      "version": "1.0.0",
      "title": "Movie API"
    },
    "paths": {
      "/movie": {
        "post": {
          "summary": "Cria um novo filme",
          "consumes": ["application/json"],
          "parameters": [
            {
              "in": "body",
              "name": "movie",
              "description": "Objeto contendo os detalhes do filme",
              "required": true,
              "schema": {
                "type": "object",
                "properties": {
                  "titulo": {
                    "type": "string"
                  },
                  "imgurl": {
                    "type": "string"
                  },
                  "sinopse": {
                    "type": "string"
                  },
                  "genero": {
                    "type": "string"
                  },
                  "classificacao": {
                    "type": "integer"
                  },
                  "diretor": {
                    "type": "string"
                  }
                }
              }
            }
          ],
          "responses": {
            "201": {
              "description": "Filme criado com sucesso"
            },
            "400": {
              "description": "Requisição inválida"
            }
          }
        }
      },
      "/movie": {
        "get": {
          "summary": "Retorna uma lista com todos os filmes do banco de dados",
          "responses": {
            "200": {
              "description": "Lista de filmes encontrada"
            },
            "404": {
              "description": "Nenhum filme encontrado"
            }
          }
        }
      },
      "/users/registro": {
        "post": {
          "summary": "Cria um usuário com base nos dados fornecidos",
          "consumes": ["application/json"],
          "parameters": [
            {
              "in": "body",
              "name": "user",
              "description": "Objeto contendo os detalhes do usuário",
              "required": true,
              "schema": {
                "type": "object",
                "properties": {
                  "nome": {
                    "type": "string"
                  },
                  "sobrenome": {
                    "type": "string"
                  },
                  "cpf": {
                    "type": "integer",
                    "maximum": 99999999999
                  },
                  "datanasc": {
                    "type": "string"
                  },
                  "username": {
                    "type": "string"
                  },
                  "email": {
                    "type": "string"
                  },
                  "password": {
                    "type": "string"
                  }
                }
              }
            }
          ],
          "responses": {
            "201": {
              "description": "Usuário criado com sucesso"
            },
            "400": {
              "description": "Requisição inválida"
            }
          }
        }
      },
      "/users": {
        "get": {
          "summary": "Retorna todos os usuários",
          "responses": {
            "200": {
              "description": "Lista de usuários encontrada"
            },
            "400": {
              "description": "Requisição inválida"
            }
          }
        }
      },
      "/users/login": {
        "post": {
          "summary": "Realiza o login do usuário e retorna o ID do usuário",
          "consumes": ["application/json"],
          "parameters": [
            {
              "in": "body",
              "name": "login",
              "description": "Objeto contendo os dados de login",
              "required": true,
              "schema": {
                "type": "object",
                "properties": {
                  "email": {
                    "type": "string"
                  },
                  "username": {
                    "type": "string"
                  },
                  "password": {
                    "type": "string"
                  }
                }
              }
            }
          ],
          "responses": {
            "200": {
              "description": "Login bem-sucedido"
            },
            "400": {
              "description": "Requisição inválida"
            }
          }
        }
      },
      "/users/{userid}": {
        "get": {
          "summary": "Retorna o usuário correspondente ao ID fornecido",
          "parameters": [
            {
              "in": "path",
              "name": "userid",
              "description": "ID do usuário",
              "required": true,
              "type": "string"
            }
          ],
          "responses": {
            "200": {
              "description": "Usuário encontrado"
            },
            "400": {
              "description": "Requisição inválida"
            }
          }
        }
      },
      "/session/movieid": {
        "post": {
          "summary": "Cria uma sessão com base no ID do filme",
          "consumes": ["application/json"],
          "parameters": [
            {
              "in": "body",
              "name": "session",
              "description": "Objeto contendo os detalhes da sessão",
              "required": true,
              "schema": {
                "type": "object",
                "properties": {
                  "movieid": {
                    "type": "string"
                  }
                }
              }
            }
          ],
          "responses": {
            "201": {
              "description": "Sessão criada com sucesso"
            },
            "400": {
              "description": "Requisição inválida"
            }
          }
        }
      },
      "/session/{movieid}": {
        "get": {
          "summary": "Retorna uma lista de todas as sessões de um filme",
          "parameters": [
            {
              "in": "path",
              "name": "movieid",
              "description": "ID do filme",
              "required": true,
              "type": "string"
            }
          ],
          "responses": {
            "200": {
              "description": "Lista de sessões encontrada"
            },
            "400": {
              "description": "Requisição inválida"
            }
          }
        }
      },
      "/session": {
        "get": {
          "summary": "Retorna todas as sessões de todos os filmes",
          "responses": {
            "200": {
              "description": "Lista de sessões encontrada"
            },
            "400": {
              "description": "Requisição inválida"
            }
          }
        }
      }
    }
  }